{
  "CantidadHorasSemanales": 12,
  "Aulas": [
    {
      "Id": 1,
      "Codigo": "A1",
      "Capacidad": 30,
      "IdsPrestaciones": [ 1, 2, 4, 6 ]
    },
    {
      "Id": 2,
      "Codigo": "A2",
      "Capacidad": 30,
      "IdsPrestaciones": [ 4, 5, 6 ]
    },
    {
      "Id": 3,
      "Codigo": "A3",
      "Capacidad": 40,
      "IdsPrestaciones": [ 1, 2, 3, 4 ]
    },
    {
      "Id": 4,
      "Codigo": "A4",
      "Capacidad": 50,
      "IdsPrestaciones": [ 1, 2, 3, 4, 5, 6 ]
    },
    {
      "Id": 5,
      "Codigo": "A5",
      "Capacidad": 80,
      "IdsPrestaciones": [ 1, 3, 4, 5 ]
    },
    {
      "Id": 6,
      "Codigo": "A6",
      "Capacidad": 50,
      "IdsPrestaciones": [ 1, 3, 4, 5 ]
    },
    {
      "Id": 7,
      "Codigo": "A7",
      "Capacidad": 50,
      "IdsPrestaciones": [ 1, 3, 4, 5 ]
    }
  ],
  "Comisiones": [
    {
      "Id": 1,
      "Codigo": "C1",
      "Capacidad": 25,
      "Horas": 4,
      "IdsPrestaciones": [ 3, 4, 5 ]
    },
    {
      "Id": 2,
      "Codigo": "C2",
      "Capacidad": 38,
      "Horas": 6,
      "IdsPrestaciones": [ 1, 2, 3 ]
    },
    {
      "Id": 3,
      "Codigo": "C3",
      "Capacidad": 20,
      "Horas": 8,
      "IdsPrestaciones": [ 3, 4, 5 ]
    },
    {
      "Id": 4,
      "Codigo": "C4",
      "Capacidad": 75,
      "Horas": 4,
      "IdsPrestaciones": [ 1, 3, 4, 5 ]
    },
    {
      "Id": 5,
      "Codigo": "C5",
      "Capacidad": 25,
      "Horas": 4,
      "IdsPrestaciones": [ 1, 2, 3 ]
    },
    {
      "Id": 6,
      "Codigo": "C6",
      "Capacidad": 15,
      "Horas": 2,
      "IdsPrestaciones": [ 2, 3 ]
    },
    {
      "Id": 7,
      "Codigo": "C7",
      "Capacidad": 40,
      "Horas": 6,
      "IdsPrestaciones": [ 1, 3 ]
    },
    {
      "Id": 8,
      "Codigo": "C8",
      "Capacidad": 30,
      "Horas": 8,
      "IdsPrestaciones": [ 3, 4 ]
    },
    {
      "Id": 9,
      "Codigo": "C9",
      "Capacidad": 25,
      "Horas": 4,
      "IdsPrestaciones": [ 3, 4, 5 ]
    },
    {
      "Id": 10,
      "Codigo": "C10",
      "Capacidad": 30,
      "Horas": 6,
      "IdsPrestaciones": [ 4, 5, 6 ]
    }
  ],
  "Prestaciones": [
    {
      "Id": 1,
      "Nombre": "Wi-fi",
      "Peso": 3
    },
    {
      "Id": 2,
      "Nombre": "Aire acondicionado",
      "Peso": 3
    },
    {
      "Id": 3,
      "Nombre": "Pizarra blanca",
      "Peso": 3
    },
    {
      "Id": 4,
      "Nombre": "Proyector",
      "Peso": 5
    },
    {
      "Id": 5,
      "Nombre": "Computadoras",
      "Peso": 5
    },
    {
      "Id": 6,
      "Nombre": "Tomacorrientes",
      "Peso": 5
    }
  ]
}
